(character (value a) (width 400)(height 400)(strokes ((267.0 226.0)(278.233901308 267.581412036)(308.775431805 279.682866959)(288.736630949 244.650876243)(280.463671626 202.449005189)(277.690528298 159.682978668)(251.406681261 130.509166459)(207.976673707 128.330690939)(170.331802921 145.260672563)(142.910500283 178.199134536)(136.011563089 220.115622534)(136.296504366 263.128700537)(168.340962417 287.135273608)(211.346031937 286.082384174)(246.771624517 263.539267179)(267.0 226.0))))
(character (value a) (width 400)(height 400)(strokes ((247.0 123.0)(206.877270458 112.944886505)(164.601207136 111.135436573)(127.847963742 128.816980676)(105.020204406 163.22836646)(94.6322333913 204.545672335)(92.5995253114 245.638374141)(107.082898384 284.019223776)(145.886825446 292.872380359)(185.436272193 278.767073767)(217.741089596 252.822859997)(240.63962518 217.744872068)(250.592961387 234.937802958)(263.952532212 274.734177262)(293.848578908 297.116066216)(276.290926207 263.50870246)(264.902261132 223.354907438)(261.672907459 181.590186752)(261.956054468 139.643368348)(261.327810901 97.8504243441)(246.794356205 59.3184723326)(212.4153663 37.4921276996)(169.975220544 31.9825000144)(129.297267623 37.1793892418)(94.0635338535 56.8439839722)(129.407865667 54.7670337491)(170.03798813 46.2418620516)(210.600175693 55.8895445473)(241.471350925 81.7225024694)(247.0 123.0))))
(character (value a) (width 400)(height 400)(strokes ((258.0 277.0)(263.501184988 317.729756358)(296.155105752 336.399007453)(277.290060016 305.448699099)(273.976218094 264.156639973)(275.443242368 222.448101412)(254.866773505 192.068509508)(214.735060197 181.850286115)(174.14262771 183.428118215)(134.703786645 199.983192691)(113.729124346 233.623765028)(103.27244126 274.166015206)(99.7950479347 315.358023876)(124.469216277 344.835354086)(165.195157395 347.672941811)(206.412949496 338.943482786)(237.079011733 312.38532414)(258.0 277.0))))
(character (value b) (width 400)(height 400)(strokes ((149.0 321.0)(190.611258165 327.898572679)(233.208243283 324.142370627)(272.301974836 307.356124146)(283.99992946 267.327065697)(276.175011469 225.600741838)(252.42219957 189.97696407)(212.931446555 179.00984318)(170.177712968 181.859371252)(154.936197236 157.496907609)(155.842994005 114.659680916)(156.001508661 71.7725727897)(144.754367543 38.2148447777)(141.0 79.8540692716)(140.851755352 122.758057035)(139.57655688 165.629527131)(137.750743683 208.443665318)(136.302134749 251.263192162)(135.614836271 294.105294722)(132.955952391 337.017764903)(149.0 321.0))))
(character (value b) (width 400)(height 400)(strokes ((199.0 333.0)(241.191520855 332.524509244)(277.639527091 312.624313479)(296.663949225 276.847782906)(286.135400091 236.685190354)(259.486312739 204.945245876)(217.839373564 202.593326463)(199.0 185.728914243)(199.0 143.644087003)(190.606432002 106.097556151)(184.0 146.28778941)(184.0 188.372616649)(184.0 230.457443889)(184.0 272.542271128)(184.0 314.627098368)(199.0 333.0))))
(character (value c) (width 400)(height 400)(strokes ((171.0 138.554)(135.685803052 162.266503963)(112.729197722 196.757486296)(101.409615878 238.710532434)(108.562402828 280.273254971)(138.841804194 309.716890371)(180.494759697 316.999341506)(222.709971366 315.040713661)(260.963692951 294.959277067)(248.390611388 283.91341806)(210.141662798 301.38795314)(166.878759894 301.838691252)(130.140276639 283.701796378)(117.013441008 242.609027376)(127.046127935 202.586345949)(152.552226372 167.587780113)(190.988804405 152.426260989)(233.200669534 156.064166163)(271.074779674 175.800461608)(253.55513529 149.347934411)(213.734437503 137.431935634)(171.0 138.554))))
(character (value c) (width 400)(height 400)(strokes ((189.0 95.5139)(150.554214211 112.091811994)(120.429744288 141.68779872)(101.056304572 179.394691457)(95.8699692091 221.009049538)(98.3200288021 262.970208162)(120.379474579 298.018938079)(159.291237109 314.874757388)(200.675051452 321.838077077)(242.371666324 324.891805774)(285.095629942 317.453689102)(281.287363325 299.101188263)(240.86595352 309.568653833)(198.054228491 307.349232825)(156.917009578 297.589704821)(121.58818132 276.412357018)(109.812105216 236.02283724)(113.408117876 194.161213371)(130.648615194 155.379386845)(160.180886176 125.266525387)(198.891848077 110.51196012)(239.523543139 116.720878442)(270.883217845 112.331262976)(231.149385476 97.2505472839)(189.0 95.5139))))
(character (value d) (width 400)(height 400)(strokes ((244.0 179.0)(205.853345543 164.233916286)(165.20596103 168.895442671)(134.016609252 195.667661376)(112.718677818 230.458743546)(108.874243453 272.134310116)(124.524540753 308.867827666)(160.793631046 327.454683025)(201.96841776 328.409312939)(238.889554102 311.117448897)(214.920237328 307.623271127)(174.603419112 313.700698358)(136.725433247 297.396410007)(124.316074824 260.551938186)(135.821242147 220.630845492)(163.367694899 190.133831579)(201.867890917 179.318949447)(240.151314572 193.62129566)(244.0 231.838588975)(244.0 273.192611736)(243.423231667 314.487788375)(259.216912661 320.068093562)(259.0 278.855407766)(258.921178317 237.497622675)(258.615256033 196.121589823)(258.249933349 154.755852557)(258.01195692 113.433758492)(255.596692179 72.1705802758)(239.595576163 55.3783355442)(240.666400951 96.5823340486)(244.58572455 137.532876885)(244.0 179.0))))
(character (value d) (width 400)(height 400)(strokes ((227.0 185.0)(184.056577404 192.164707999)(149.077713372 213.40611594)(124.794460379 248.34514974)(113.930687294 291.396933638)(136.963078588 324.101734353)(177.802893542 328.629179209)(209.909709579 300.844123785)(228.344434295 262.237333424)(232.325968993 294.178305283)(247.771795745 330.747757669)(247.479610451 291.707296789)(244.407302971 248.975574622)(242.516328526 206.187232119)(242.415961805 163.289773111)(245.023764076 120.479474064)(245.805457207 77.526285489)(229.01491305 99.1194795037)(227.830148581 142.123399653)(227.0 185.0))))
(character (value e) (width 400)(height 400)(strokes ((153.0 200.0)(195.83085865 199.426153788)(238.457585653 199.294033915)(275.629247646 183.066163443)(288.222133354 142.832622617)(263.054390207 112.193620064)(219.875170828 110.16793099)(181.554353071 124.570799027)(150.359179655 155.979433207)(137.642856905 195.233439278)(138.298328146 237.937705224)(148.853285036 279.612945432)(175.927527193 310.817826855)(216.894868681 324.534588927)(259.790235235 328.549173577)(288.022394665 305.635893764)(247.534660898 312.26001684)(205.798371833 304.376332243)(169.155896903 281.870149325)(155.049453453 243.591156683)(153.0 200.0))))
(character (value e) (width 400)(height 400)(strokes ((130.0 182.0)(171.606958752 180.305891909)(212.959533934 176.144941656)(254.716549368 174.07237497)(295.529494832 169.737250236)(286.574780035 133.661364493)(256.213789032 104.303491589)(219.124539913 87.2204941969)(177.406096359 86.4657868962)(144.6373817 111.68675786)(119.867286168 144.379431172)(114.919382198 185.362161635)(113.978663335 227.643871347)(130.754765377 264.64716786)(164.17208356 287.926301611)(205.581149541 293.996635412)(246.400432069 293.588470898)(284.898393419 279.009753744)(267.647228102 271.155757594)(228.004640543 280.786761742)(185.966007553 277.032026615)(148.604008148 259.159102817)(129.174240221 224.017988216)(130.0 182.0))))
(character (value f) (width 400)(height 400)(strokes ((152.0 210.0)(147.032325427 251.163970761)(146.32495434 292.942152924)(142.191722001 333.739518277)(158.433498699 343.117235318)(160.650420343 300.579468939)(162.009152487 259.047435616)(166.738519082 217.693040205)(200.850681682 209.347791407)(203.438912761 194.004936597)(167.82062966 190.026238563)(169.583045035 148.553742849)(170.6294025 106.875041695)(187.78036826 70.7436408265)(225.484348003 84.5676205901)(246.664231989 110.692179818)(237.330306296 73.1067089986)(200.983250524 54.3603575268)(165.905532948 69.2700368996)(154.247530371 108.832434118)(152.936054027 150.295625488)(151.283423931 191.711931339)(110.063273477 193.551766846)(110.228033755 210.801931126)(152.0 210.0))))
(character (value f) (width 400)(height 400)(strokes ((186.0 212.0)(144.423805831 213.058733902)(169.465380262 227.168284295)(185.660761615 251.946358853)(185.146532406 293.970585287)(187.495362586 334.322700694)(204.174169778 356.431161983)(201.990715602 313.748573269)(201.018009026 272.070625521)(200.998680282 230.392735082)(239.230910911 226.177550921)(227.011053233 211.194961234)(200.822354197 196.40339968)(200.720240132 154.567444305)(204.306933094 112.973676304)(236.90413628 102.824112779)(268.810018541 112.511616553)(238.736225141 85.6836241757)(199.37336241 89.9838612051)(187.254602194 128.720568326)(185.456801382 170.294202841)(186.0 212.0))))
(character (value g) (width 400)(height 400)(strokes ((256.0 94.0)(214.190364651 89.9181809173)(173.087737211 93.1173038099)(138.946247129 117.079091706)(124.317530323 155.898971256)(133.329996042 195.118048811)(169.046122451 217.225264316)(210.526987391 218.238623837)(237.383200891 206.19781769)(231.359279082 247.841191083)(227.402506287 289.813019574)(221.521832689 330.355146644)(202.163920283 365.165392199)(167.656238187 346.877922975)(147.713349247 309.876729792)(136.603816417 327.02592505)(158.385442464 362.920862774)(195.107590211 378.844815017)(230.645607277 363.337120881)(237.630576231 321.921153165)(243.056631059 280.193335077)(249.141575709 238.579827987)(253.835919904 196.73990332)(261.423355563 155.446416942)(269.678200169 114.451080898)(256.0 94.0))))
(character (value g) (width 400)(height 400)(strokes ((241.0 226.0)(239.941660509 266.035322852)(238.566949536 309.108624029)(224.753663546 346.155042727)(188.267318394 359.94163678)(154.262610398 338.086240698)(123.868744444 311.982212466)(135.425098642 343.828781176)(166.913909119 367.497279298)(205.664179088 375.887907814)(240.444050149 354.50831722)(252.206920365 316.239984246)(255.839222091 275.597986725)(256.021968351 234.552194928)(255.882533813 195.724046488)(256.0 154.7395708)(255.971388986 114.059717455)(217.928411082 99.8785282631)(177.875725533 102.225714192)(145.0026809 125.911105806)(127.971726442 161.655018486)(131.543913768 201.991823414)(160.395065818 229.418084339)(201.010348819 233.137319042)(241.0 226.0))))
(character (value h) (width 400)(height 400)(strokes ((161.0 187.0)(161.429466549 144.457670797)(161.97498718 101.874019862)(152.780686844 65.3874808177)(147.0 105.304701327)(146.673039326 147.902932334)(145.440760999 190.412109193)(143.985901057 232.90321624)(143.061401544 275.488253602)(142.472140685 318.10848371)(155.203676355 344.523458113)(158.0 300.687725598)(158.0 258.118079278)(158.661476539 215.455280207)(192.336311011 196.941977758)(221.99070705 221.041333355)(228.586958456 262.61212411)(232.034792146 305.003883091)(246.026076231 332.376073977)(246.276634852 290.340993927)(242.331988962 247.891310392)(233.512792304 206.615114485)(203.145110583 181.238395391)(161.0 187.0))))
(character (value h) (width 400)(height 400)(strokes ((185.0 223.0)(225.063016372 226.692003173)(240.063345786 264.118173594)(240.0 305.27486676)(240.282187073 346.634107388)(255.0 328.073676768)(255.000031092 286.812210681)(252.701761052 245.622990322)(232.354122435 211.450847404)(191.22029223 207.837427795)(188.916199539 172.551360595)(190.0 131.264148932)(189.82920603 90.1214214036)(175.0 103.318796587)(174.926971098 144.536816292)(173.251540202 185.921131474)(169.350641671 226.983722102)(164.012648152 267.856992676)(162.0 309.135942517)(161.682975099 350.305273629)(177.255334378 346.155347165)(177.40264902 305.082732213)(179.554536053 263.90952498)(185.0 223.0))))
(character (value i) (width 400)(height 400)(strokes ((183.059 100.029)(183.059 100.029))((181.059 156.029)(175.396732353 199.057740936)(172.493711726 243.490809127)(168.379804447 287.780510676)(165.482285018 332.311415751)(191.675731271 358.261519254)(205.243294195 329.960394557)(180.967995439 324.675341147)(184.991461673 280.681554001)(187.907153431 236.256694063)(191.668506395 192.086810357)(181.059 156.029))))
(character (value i) (width 400)(height 400)(strokes ((192.059 77.0285)(192.059 77.0285))((194.059 141.029)(190.0 183.418199033)(188.242113284 227.244205986)(185.183000145 270.917971603)(185.826250174 314.72434946)(185.664702239 358.597093397)(201.0 351.526186335)(201.088371749 307.670003897)(202.428893937 263.884163626)(204.228906333 220.152800728)(205.076322605 176.379757591)(194.059 141.029))))
(character (value j) (width 400)(height 400)(strokes ((212.059 82.0285)(212.059 82.0285))((211.059 140.029)(207.0 182.155965776)(206.702215173 225.781689196)(205.212041572 269.248881901)(202.758073842 312.745183229)(191.301412799 353.389654536)(162.245191473 334.312475095)(141.882725081 306.489385539)(150.348019682 348.277860764)(181.434910139 372.835468404)(212.997973679 348.693719512)(219.6461543 305.902135901)(222.447038199 262.3034347)(222.297397993 218.32546632)(222.420291981 175.109608117)(211.059 140.029))))
(character (value j) (width 400)(height 400)(strokes ((213.059 96.0285)(213.059 96.0285))((216.059 154.029)(212.018871563 196.235599961)(213.42945797 239.881831192)(214.146156254 283.618653142)(190.711869281 311.685046323)(167.428722312 281.077889602)(153.458428358 296.846410663)(178.460926082 327.48515782)(221.296558662 318.531963956)(228.94674788 276.434624487)(227.870713997 232.728590978)(227.000723349 189.07889094)(216.059 154.029))))